14:10:18.200 [main                     ] DEBUG Logger               - Configured Logger
14:10:18.205 [main                     ] DEBUG GameApplication      - Logging settings
Title: Basic Game v2 App
Version: 0.2
Width: 700
Height: 700
Fullscreen: false
Intro: false
Profiling: false
Single step:false
App Mode: DEVELOPER
Menu Key: ESCAPE
Stage Style: DECORATED
Scene Factory: class com.almasb.fxgl.app.scene.SceneFactory

14:10:18.498 [JavaFX Application Thread] DEBUG FXGLApplication      - Initializing FXGL
14:10:18.500 [JavaFX Application Thread] INFO  Engine               - FXGL-11.17 (16.07.2021 15.46) on WINDOWS (J:16.0.1 FX:16)
14:10:18.501 [JavaFX Application Thread] DEBUG Engine               - JRE Vendor Name: AdoptOpenJDK
14:10:18.501 [JavaFX Application Thread] DEBUG Engine               - Running on OS: Windows 10 version 10.0
14:10:18.501 [JavaFX Application Thread] DEBUG Engine               - Architecture: amd64
14:10:18.501 [JavaFX Application Thread] INFO  Engine               - Source code and latest versions at: https://github.com/AlmasB/FXGL
14:10:18.501 [JavaFX Application Thread] INFO  Engine               -              Join the FXGL chat at: https://gitter.im/AlmasB/FXGL
14:10:18.584 [JavaFX Application Thread] DEBUG PrimaryStageWindow   - Creating a JavaFX scene
14:10:18.640 [JavaFX Application Thread] DEBUG PrimaryStageWindow   - Target settings size: 700.0 x 700.0
14:10:18.641 [JavaFX Application Thread] DEBUG PrimaryStageWindow   - Scaled scene size:    700.0 x 700.0
14:10:18.641 [JavaFX Application Thread] DEBUG PrimaryStageWindow   - Scaled ratio: (1.0, 1.0)
14:10:18.642 [JavaFX Application Thread] DEBUG PrimaryStageWindow   - Set initial scene to FXGLStartupScene
14:10:18.654 [JavaFX Application Thread] DEBUG PrimaryStageWindow   - Opening main window
14:10:18.725 [JavaFX Application Thread] DEBUG PrimaryStageWindow   - Window border size: (16.0, 39.0)
14:10:18.725 [JavaFX Application Thread] DEBUG PrimaryStageWindow   - Scaled size: 700.0 x 700.0
14:10:18.726 [JavaFX Application Thread] DEBUG PrimaryStageWindow   - Scaled ratio: (1.0, 1.0)
14:10:18.726 [JavaFX Application Thread] DEBUG PrimaryStageWindow   - Scene size: 700.0 x 700.0
14:10:18.726 [JavaFX Application Thread] DEBUG PrimaryStageWindow   - Stage size: 716.0 x 739.0
14:10:18.740 [FXGL Background Thread 1 ] DEBUG Engine               - Initializing environment variables
14:10:18.806 [FXGL Background Thread 1 ] DEBUG FXGLAssetLoaderServi - User app class for loading assets: class com.mycompany.basicgameexampleV2.BasicGameV2App
14:10:18.807 [FXGL Background Thread 1 ] DEBUG GameApplicationServi - Applying CSS: fxgl_dark.css
14:10:18.808 [FXGL Background Thread 1 ] DEBUG FXGLAssetLoaderServi - Loading from file system: jar:file:/C:/Users/1533920/.m2/repository/com/github/almasb/fxgl/11.17/fxgl-11.17.jar!/fxglassets/ui/css/fxgl_dark.css
14:10:18.845 [FXGL Background Thread 1 ] DEBUG GameApplicationServi - Initializing application scenes
14:10:18.894 [FXGL Background Thread 1 ] DEBUG GameWorld            - Game world initialized
14:10:18.958 [FXGL Background Thread 1 ] DEBUG PhysicsWorld         - Physics world initialized: appHeight=700, physics.ppm=50.0
14:10:18.958 [FXGL Background Thread 1 ] DEBUG PhysicsWorld         - Using strategy: BRUTE_FORCE
14:10:18.959 [FXGL Background Thread 1 ] DEBUG GameScene            - Game scene initialized: 700x700
14:10:18.971 [FXGL Background Thread 1 ] WARN  FXGL.DefaultMenu     - FXGLDefaultMenu is not designed for resolutions < 800x600
14:10:18.971 [FXGL Background Thread 1 ] DEBUG FXGL.DefaultMenu     - createMenuBodyGameMenu()
14:10:18.982 [FXGL Background Thread 1 ] DEBUG FXGL.DefaultMenu     - createOptionsMenu()
14:10:18.991 [FXGL Background Thread 1 ] DEBUG FXGLAssetLoaderServi - Loading from file system: jar:file:/C:/Users/1533920/.m2/repository/com/github/almasb/fxgl/11.17/fxgl-11.17.jar!/fxglassets/textures/particles/smoke.png
14:10:19.082 [FXGL Background Thread 1 ] DEBUG FXGLAssetLoaderServi - Loading from file system: jar:file:/C:/Users/1533920/.m2/repository/com/github/almasb/fxgl/11.17/fxgl-11.17.jar!/fxglassets/textures/particles/trace_horizontal.png
14:10:19.123 [FXGL Background Thread 1 ] DEBUG GameApplicationServi - Application scenes initialized
14:10:19.134 [FXGL Background Thread 1 ] DEBUG SystemBundleService  - Loading FXGL system data
14:10:19.138 [FXGL Background Thread 1 ] DEBUG FileSystemAccess     - Reading from: C:\Users\1533920\Desktop\basicgameexamplev2\system\fxgl.bundle
14:10:19.142 [FXGL Background Thread 1 ] DEBUG SystemBundleService  - Bundle FXGL: {}
14:10:19.143 [FXGL Background Thread 1 ] DEBUG UpdaterService       - Checking for updates
14:10:19.146 [FXGL Background Thread 4 ] DEBUG FXGLApplication      - Loading fonts
14:10:19.146 [FXGL Background Thread 1 ] DEBUG FXGLApplication      - Loading default localization
14:10:19.146 [FXGL Background Thread 4 ] DEBUG FXGLAssetLoaderServi - Loading from file system: jar:file:/C:/Users/1533920/.m2/repository/com/github/almasb/fxgl/11.17/fxgl-11.17.jar!/fxglassets/ui/fonts/VarelaRound-Regular.ttf
14:10:19.147 [FXGL Background Thread 1 ] DEBUG FXGLAssetLoaderServi - Loading from file system: jar:file:/C:/Users/1533920/.m2/repository/com/github/almasb/fxgl/11.17/fxgl-11.17.jar!/fxglassets/languages/english.lang
14:10:19.173 [FXGL Background Thread 1 ] INFO  FXGLApplication      - FXGL initialization took: 0.433 sec
14:10:19.187 [FXGL Background Thread 4 ] DEBUG FXGLAssetLoaderServi - Loading from file system: jar:file:/C:/Users/1533920/.m2/repository/com/github/almasb/fxgl/11.17/fxgl-11.17.jar!/fxglassets/ui/fonts/Abel-Regular.ttf
14:10:19.187 [JavaFX Application Thread] DEBUG Input                - Registered new binding: action0 - Right
14:10:19.188 [JavaFX Application Thread] DEBUG Input                - Registered new binding: action1 - Left
14:10:19.188 [JavaFX Application Thread] DEBUG Input                - Registered new binding: action2 - Up
14:10:19.189 [FXGL Background Thread 4 ] DEBUG FXGLAssetLoaderServi - Loading from file system: jar:file:/C:/Users/1533920/.m2/repository/com/github/almasb/fxgl/11.17/fxgl-11.17.jar!/fxglassets/ui/fonts/lucida_console.ttf
14:10:19.189 [JavaFX Application Thread] DEBUG Input                - Registered new binding: action3 - Down
14:10:19.190 [JavaFX Application Thread] DEBUG Input                - Registered new binding: AUTO-0 - Right
14:10:19.191 [JavaFX Application Thread] DEBUG Input                - Registered new binding: AUTO-1 - Left
14:10:19.191 [JavaFX Application Thread] DEBUG Input                - Registered new binding: AUTO-2 - Up
14:10:19.192 [JavaFX Application Thread] DEBUG Input                - Registered new binding: AUTO-3 - Down
14:10:19.193 [FXGL Background Thread 4 ] DEBUG FXGLAssetLoaderServi - Loading from file system: jar:file:/C:/Users/1533920/.m2/repository/com/github/almasb/fxgl/11.17/fxgl-11.17.jar!/fxglassets/ui/fonts/Courier-Prime.ttf
14:10:19.193 [JavaFX Application Thread] DEBUG FXGLAssetLoaderServi - Loading from file system: jar:file:/C:/Users/1533920/.m2/repository/com/github/almasb/fxgl/11.17/fxgl-11.17.jar!/fxglassets/textures/fxgl_icon.png
14:10:19.212 [JavaFX Application Thread] DEBUG FXGLAssetLoaderServi - Loading from file system: jar:file:/C:/Users/1533920/.m2/repository/com/github/almasb/fxgl/11.17/fxgl-11.17.jar!/fxglassets/textures/fxgl_default_cursor.png
14:10:19.216 [JavaFX Application Thread] DEBUG Input                - Registered new binding: Screenshot - CTRL+8
14:10:19.218 [JavaFX Application Thread] DEBUG Input                - Registered new binding: System info dump - CTRL+9
14:10:19.220 [JavaFX Application Thread] DEBUG Input                - Registered new binding: Restart - CTRL+R
14:10:19.222 [JavaFX Application Thread] DEBUG Input                - Registered new binding: Toggle Debug Camera - CTRL+C
14:10:19.227 [JavaFX Application Thread] DEBUG LoopRunner           - Starting loop
14:10:19.227 [JavaFX Application Thread] DEBUG LoopRunner           - Initializing JavaFX AnimationTimerLoop
14:10:19.233 [JavaFX Application Thread] DEBUG GameApplicationServi - Starting new game
14:10:19.234 [JavaFX Application Thread] DEBUG Input                - Clearing active input actions
14:10:19.246 [JavaFX Application Thread] DEBUG GameApplicationServi - Removing overlay from FXGLStartupScene and adding to FXGLLoadingScene
14:10:19.246 [JavaFX Application Thread] DEBUG PrimaryStageWindow   - FXGLStartupScene -> FXGLLoadingScene
14:10:19.246 [JavaFX Application Thread] DEBUG GameApplicationServi - Clearing previous game
14:10:19.246 [JavaFX Application Thread] DEBUG GameScene            - Clearing game scene
14:10:19.246 [JavaFX Application Thread] DEBUG GameWorld            - Clearing game world
14:10:19.246 [JavaFX Application Thread] DEBUG PhysicsWorld         - Clearing physics world
14:10:19.250 [FXGL Background Thread 4 ] DEBUG FXGLApplication      - Initializing game
14:10:19.250 [JavaFX Application Thread] DEBUG FXGLApplication      - Registering font factories with UI factory
14:10:19.256 [FXGL Background Thread 4 ] INFO  FXGLApplication      - Game initialization took: 0.007 sec
14:10:19.308 [JavaFX Application Thread] DEBUG Input                - Clearing active input actions
14:10:19.313 [JavaFX Application Thread] DEBUG GameApplicationServi - Removing overlay from FXGLLoadingScene and adding to GameScene
14:10:19.313 [JavaFX Application Thread] DEBUG PrimaryStageWindow   - FXGLLoadingScene -> GameScene
14:10:19.821 [JavaFX Application Thread] DEBUG PrimaryStageWindow   - Push state: DialogSubScene
14:10:19.822 [JavaFX Application Thread] DEBUG Input                - Clearing active input actions
14:10:19.830 [JavaFX Application Thread] DEBUG GameApplicationServi - Removing overlay from GameScene and adding to DialogSubScene
14:10:19.830 [JavaFX Application Thread] DEBUG PrimaryStageWindow   - GameScene -> DialogSubScene
14:10:21.250 [JavaFX Application Thread] DEBUG PrimaryStageWindow   - Pop state: DialogSubScene
14:10:21.250 [JavaFX Application Thread] DEBUG Input                - Clearing active input actions
14:10:21.251 [JavaFX Application Thread] DEBUG GameApplicationServi - Removing overlay from DialogSubScene and adding to GameScene
14:10:21.252 [JavaFX Application Thread] DEBUG PrimaryStageWindow   - GameScene <- DialogSubScene
14:10:21.262 [ClientAsyncConnThread    ] DEBUG TCPClient            - Connecting to localhost:7777 type: class com.almasb.fxgl.core.serialization.Bundle
14:10:21.264 [ClientAsyncConnThread    ] DEBUG TCPClient            - Created socket to localhost:7777
14:10:21.270 [ClientAsyncConnThread    ] DEBUG Endpoint             - TCPClient opening new connection (1) from localhost/127.0.0.1:7777 type: class com.almasb.fxgl.core.serialization.Bundle
14:10:21.271 [ClientAsyncConnThread    ] DEBUG Endpoint             - TCPClient successfully opened connection (1)
14:10:21.275 [TCPClient_SendThread-1   ] DEBUG Writers              - Getting TCPMessageWriter for class com.almasb.fxgl.core.serialization.Bundle
14:10:21.276 [TCPClient_RecvThread-1   ] DEBUG Readers              - Getting TCPMessageReader for class com.almasb.fxgl.core.serialization.Bundle
14:10:21.276 [TCPClient_SendThread-1   ] DEBUG Writers              - Constructed TCPMessageWriter for class com.almasb.fxgl.core.serialization.Bundle: BundleTCPMessageWriter
14:10:21.276 [TCPClient_RecvThread-1   ] DEBUG Readers              - Constructed MessageReader for class com.almasb.fxgl.core.serialization.Bundle: BundleTCPMessageReader
14:10:21.288 [JavaFX Application Thread] DEBUG FXGLAssetLoaderServi - Loading from file system: file:/C:/Users/1533920/Desktop/basicgameexamplev2/target/classes/assets/textures/bird-sprite.jpg
14:10:22.146 [FXGL Background Thread 3 ] DEBUG Engine               - Logging environment variables
14:10:22.147 [FXGL Background Thread 3 ] DEBUG Engine               - achievements: []
14:10:22.147 [FXGL Background Thread 3 ] DEBUG Engine               - actualHeight: 700.0
14:10:22.148 [FXGL Background Thread 3 ] DEBUG Engine               - actualHeightProperty: ReadOnlyDoubleProperty [value: 700.0]
14:10:22.148 [FXGL Background Thread 3 ] DEBUG Engine               - actualWidth: 700.0
14:10:22.148 [FXGL Background Thread 3 ] DEBUG Engine               - actualWidthProperty: ReadOnlyDoubleProperty [value: 700.0]
14:10:22.149 [FXGL Background Thread 3 ] DEBUG Engine               - appIcon: fxgl_icon.png
14:10:22.149 [FXGL Background Thread 3 ] DEBUG Engine               - applicationMode: DEVELOPER
14:10:22.149 [FXGL Background Thread 3 ] DEBUG Engine               - cSSList: [fxgl_dark.css]
14:10:22.149 [FXGL Background Thread 3 ] DEBUG Engine               - collisionDetectionStrategy: BRUTE_FORCE
14:10:22.150 [FXGL Background Thread 3 ] DEBUG Engine               - configClass: Optional.empty
14:10:22.150 [FXGL Background Thread 3 ] DEBUG Engine               - credits: []
14:10:22.150 [FXGL Background Thread 3 ] DEBUG Engine               - defaultCursor: CursorInfo(imageName=fxgl_default_cursor.png, hotspotX=7.0, hotspotY=6.0)
14:10:22.151 [FXGL Background Thread 3 ] DEBUG Engine               - devBBoxColorProperty: ObjectProperty [value: 0xff0000ff]
14:10:22.151 [FXGL Background Thread 3 ] DEBUG Engine               - devEnableDebugCameraProperty: BooleanProperty [value: false]
14:10:22.151 [FXGL Background Thread 3 ] DEBUG Engine               - devSensorColorProperty: ObjectProperty [value: 0xffff00ff]
14:10:22.152 [FXGL Background Thread 3 ] DEBUG Engine               - devShowBBoxProperty: BooleanProperty [value: false]
14:10:22.152 [FXGL Background Thread 3 ] DEBUG Engine               - devShowPositionProperty: BooleanProperty [value: false]
14:10:22.152 [FXGL Background Thread 3 ] DEBUG Engine               - enabledMenuItems: []
14:10:22.153 [FXGL Background Thread 3 ] DEBUG Engine               - engineServices: [class com.almasb.fxgl.app.services.FXGLAssetLoaderService, class com.almasb.fxgl.app.FXGLApplication$GameApplicationService, class com.almasb.fxgl.app.services.FXGLDialogService, class com.almasb.fxgl.app.services.IOTaskExecutorService, class com.almasb.fxgl.io.FileSystemService, class com.almasb.fxgl.localization.LocalizationService, class com.almasb.fxgl.app.services.SystemBundleService, class com.almasb.fxgl.profile.SaveLoadService, class com.almasb.fxgl.ui.FXGLUIFactoryServiceProvider, class com.almasb.fxgl.ui.FXGLDialogFactoryServiceProvider, class com.almasb.fxgl.audio.AudioPlayer, class com.almasb.fxgl.notification.impl.NotificationServiceProvider, class com.almasb.fxgl.achievement.AchievementService, class com.almasb.fxgl.cutscene.CutsceneService, class com.almasb.fxgl.minigames.MiniGameService, class com.almasb.fxgl.net.NetService, class com.almasb.fxgl.app.services.UpdaterService, class com.almasb.fxgl.dev.DevService, class com.almasb.fxgl.multiplayer.MultiplayerService]
14:10:22.153 [FXGL Background Thread 3 ] DEBUG Engine               - fontGame: Abel-Regular.ttf
14:10:22.153 [FXGL Background Thread 3 ] DEBUG Engine               - fontMono: lucida_console.ttf
14:10:22.154 [FXGL Background Thread 3 ] DEBUG Engine               - fontText: Courier-Prime.ttf
14:10:22.154 [FXGL Background Thread 3 ] DEBUG Engine               - fontUI: VarelaRound-Regular.ttf
14:10:22.154 [FXGL Background Thread 3 ] DEBUG Engine               - fullScreen: BooleanProperty [value: false]
14:10:22.154 [FXGL Background Thread 3 ] DEBUG Engine               - gameDifficulty: MEDIUM
14:10:22.155 [FXGL Background Thread 3 ] DEBUG Engine               - gameDifficultyProperty: ObjectProperty [value: MEDIUM]
14:10:22.155 [FXGL Background Thread 3 ] DEBUG Engine               - globalMusicVolume: 0.5
14:10:22.155 [FXGL Background Thread 3 ] DEBUG Engine               - globalMusicVolumeProperty: DoubleProperty [value: 0.5]
14:10:22.155 [FXGL Background Thread 3 ] DEBUG Engine               - globalSoundVolume: 0.5
14:10:22.156 [FXGL Background Thread 3 ] DEBUG Engine               - globalSoundVolumeProperty: DoubleProperty [value: 0.5]
14:10:22.156 [FXGL Background Thread 3 ] DEBUG Engine               - height: 700
14:10:22.156 [FXGL Background Thread 3 ] DEBUG Engine               - is3D: false
14:10:22.156 [FXGL Background Thread 3 ] DEBUG Engine               - isAndroid: false
14:10:22.157 [FXGL Background Thread 3 ] DEBUG Engine               - isBrowser: false
14:10:22.157 [FXGL Background Thread 3 ] DEBUG Engine               - isClickFeedbackEnabled: false
14:10:22.157 [FXGL Background Thread 3 ] DEBUG Engine               - isCloseConfirmation: false
14:10:22.158 [FXGL Background Thread 3 ] DEBUG Engine               - isDesktop: true
14:10:22.158 [FXGL Background Thread 3 ] DEBUG Engine               - isDeveloperMenuEnabled: false
14:10:22.158 [FXGL Background Thread 3 ] DEBUG Engine               - isEntityPreloadEnabled: true
14:10:22.158 [FXGL Background Thread 3 ] DEBUG Engine               - isExperimentalTiledLargeMap: false
14:10:22.158 [FXGL Background Thread 3 ] DEBUG Engine               - isFileSystemWriteAllowed: true
14:10:22.159 [FXGL Background Thread 3 ] DEBUG Engine               - isFullScreenAllowed: false
14:10:22.159 [FXGL Background Thread 3 ] DEBUG Engine               - isFullScreenFromStart: false
14:10:22.159 [FXGL Background Thread 3 ] DEBUG Engine               - isGameMenuEnabled: true
14:10:22.159 [FXGL Background Thread 3 ] DEBUG Engine               - isIOS: false
14:10:22.159 [FXGL Background Thread 3 ] DEBUG Engine               - isIntroEnabled: false
14:10:22.159 [FXGL Background Thread 3 ] DEBUG Engine               - isLinux: false
14:10:22.160 [FXGL Background Thread 3 ] DEBUG Engine               - isMac: false
14:10:22.160 [FXGL Background Thread 3 ] DEBUG Engine               - isMainMenuEnabled: false
14:10:22.160 [FXGL Background Thread 3 ] DEBUG Engine               - isManualResizeEnabled: false
14:10:22.160 [FXGL Background Thread 3 ] DEBUG Engine               - isMobile: false
14:10:22.161 [FXGL Background Thread 3 ] DEBUG Engine               - isNative: false
14:10:22.161 [FXGL Background Thread 3 ] DEBUG Engine               - isPauseMusicWhenMinimized: true
14:10:22.161 [FXGL Background Thread 3 ] DEBUG Engine               - isPreserveResizeRatio: false
14:10:22.161 [FXGL Background Thread 3 ] DEBUG Engine               - isProfilingEnabled: false
14:10:22.161 [FXGL Background Thread 3 ] DEBUG Engine               - isScaleAffectedOnResize: true
14:10:22.162 [FXGL Background Thread 3 ] DEBUG Engine               - isSingleStep: false
14:10:22.162 [FXGL Background Thread 3 ] DEBUG Engine               - isUserProfileEnabled: false
14:10:22.162 [FXGL Background Thread 3 ] DEBUG Engine               - isWindows: true
14:10:22.162 [FXGL Background Thread 3 ] DEBUG Engine               - language: ObjectProperty [value: ENGLISH]
14:10:22.163 [FXGL Background Thread 3 ] DEBUG Engine               - menuKey: ESCAPE
14:10:22.163 [FXGL Background Thread 3 ] DEBUG Engine               - mouseSensitivity: 0.2
14:10:22.163 [FXGL Background Thread 3 ] DEBUG Engine               - notificationViewClass: class com.almasb.fxgl.notification.view.XboxNotificationView
14:10:22.163 [FXGL Background Thread 3 ] DEBUG Engine               - pixelsPerMeter: 50.0
14:10:22.163 [FXGL Background Thread 3 ] DEBUG Engine               - platform: WINDOWS
14:10:22.164 [FXGL Background Thread 3 ] DEBUG Engine               - prefHeightProperty: ReadOnlyDoubleProperty [value: 700.0]
14:10:22.164 [FXGL Background Thread 3 ] DEBUG Engine               - prefWidthProperty: ReadOnlyDoubleProperty [value: 700.0]
14:10:22.164 [FXGL Background Thread 3 ] DEBUG Engine               - profileDir: profiles/
14:10:22.165 [FXGL Background Thread 3 ] DEBUG Engine               - profileName: StringProperty [value: DEFAULT]
14:10:22.165 [FXGL Background Thread 3 ] DEBUG Engine               - randomSeed: -1
14:10:22.165 [FXGL Background Thread 3 ] DEBUG Engine               - runtimeInfo: RuntimeInfo(platform=WINDOWS, version=11.17, build=16.07.2021 15.46)
14:10:22.165 [FXGL Background Thread 3 ] DEBUG Engine               - saveFileExt: sav
14:10:22.166 [FXGL Background Thread 3 ] DEBUG Engine               - scaledHeightProp$fxgl: DoubleProperty [bound, value: 700.0]
14:10:22.166 [FXGL Background Thread 3 ] DEBUG Engine               - scaledWidthProp$fxgl: DoubleProperty [bound, value: 700.0]
14:10:22.166 [FXGL Background Thread 3 ] DEBUG Engine               - sceneFactory: com.almasb.fxgl.app.scene.SceneFactory@15eab69a
14:10:22.166 [FXGL Background Thread 3 ] DEBUG Engine               - secondsIn24h: 60
14:10:22.167 [FXGL Background Thread 3 ] DEBUG Engine               - soundMenuBack: menu/back.wav
14:10:22.167 [FXGL Background Thread 3 ] DEBUG Engine               - soundMenuPress: menu/press.wav
14:10:22.167 [FXGL Background Thread 3 ] DEBUG Engine               - soundMenuSelect: menu/select.wav
14:10:22.167 [FXGL Background Thread 3 ] DEBUG Engine               - soundNotification: core/notification.wav
14:10:22.168 [FXGL Background Thread 3 ] DEBUG Engine               - stageStyle: DECORATED
14:10:22.168 [FXGL Background Thread 3 ] DEBUG Engine               - supportedLanguages: [ENGLISH, FRENCH, GERMAN, HUNGARIAN, RUSSIAN]
14:10:22.168 [FXGL Background Thread 3 ] DEBUG Engine               - ticksPerSecond: -1
14:10:22.169 [FXGL Background Thread 3 ] DEBUG Engine               - title: Basic Game v2 App
14:10:22.169 [FXGL Background Thread 3 ] DEBUG Engine               - urlGithub: https://github.com/AlmasB/FXGL
14:10:22.169 [FXGL Background Thread 3 ] DEBUG Engine               - urlLeaderboard: http://fxgl-top.herokuapp.com/
14:10:22.169 [FXGL Background Thread 3 ] DEBUG Engine               - urlPOM: https://raw.githubusercontent.com/AlmasB/FXGL/release/README.md
14:10:22.170 [FXGL Background Thread 3 ] DEBUG Engine               - userAppClass: class com.mycompany.basicgameexampleV2.BasicGameV2App
14:10:22.170 [FXGL Background Thread 3 ] DEBUG Engine               - version: 0.2
14:10:22.170 [FXGL Background Thread 3 ] DEBUG Engine               - versionCheckDays: 7
14:10:22.170 [FXGL Background Thread 3 ] DEBUG Engine               - width: 700
14:10:22.170 [FXGL Background Thread 3 ] DEBUG Engine               - Logging services
14:10:22.170 [FXGL Background Thread 3 ] DEBUG Engine               - class com.almasb.fxgl.app.services.FXGLAssetLoaderService
14:10:22.171 [FXGL Background Thread 3 ] DEBUG Engine               - class com.almasb.fxgl.app.FXGLApplication$GameApplicationService
14:10:22.171 [FXGL Background Thread 3 ] DEBUG Engine               - class com.almasb.fxgl.app.services.FXGLDialogService
14:10:22.171 [FXGL Background Thread 3 ] DEBUG Engine               - class com.almasb.fxgl.app.services.IOTaskExecutorService
14:10:22.171 [FXGL Background Thread 3 ] DEBUG Engine               - class com.almasb.fxgl.io.FileSystemService
14:10:22.171 [FXGL Background Thread 3 ] DEBUG Engine               - class com.almasb.fxgl.localization.LocalizationService
14:10:22.172 [FXGL Background Thread 3 ] DEBUG Engine               - class com.almasb.fxgl.app.services.SystemBundleService
14:10:22.172 [FXGL Background Thread 3 ] DEBUG Engine               - class com.almasb.fxgl.profile.SaveLoadService
14:10:22.172 [FXGL Background Thread 3 ] DEBUG Engine               - class com.almasb.fxgl.ui.FXGLUIFactoryServiceProvider
14:10:22.172 [FXGL Background Thread 3 ] DEBUG Engine               - class com.almasb.fxgl.ui.FXGLDialogFactoryServiceProvider
14:10:22.173 [FXGL Background Thread 3 ] DEBUG Engine               - class com.almasb.fxgl.audio.AudioPlayer
14:10:22.173 [FXGL Background Thread 3 ] DEBUG Engine               - class com.almasb.fxgl.notification.impl.NotificationServiceProvider
14:10:22.173 [FXGL Background Thread 3 ] DEBUG Engine               - class com.almasb.fxgl.achievement.AchievementService
14:10:22.173 [FXGL Background Thread 3 ] DEBUG Engine               - class com.almasb.fxgl.cutscene.CutsceneService
14:10:22.173 [FXGL Background Thread 3 ] DEBUG Engine               - class com.almasb.fxgl.minigames.MiniGameService
14:10:22.174 [FXGL Background Thread 3 ] DEBUG Engine               - class com.almasb.fxgl.net.NetService
14:10:22.174 [FXGL Background Thread 3 ] DEBUG Engine               - class com.almasb.fxgl.app.services.UpdaterService
14:10:22.174 [FXGL Background Thread 3 ] DEBUG Engine               - class com.almasb.fxgl.dev.DevService
14:10:22.174 [FXGL Background Thread 3 ] DEBUG Engine               - class com.almasb.fxgl.multiplayer.MultiplayerService
14:10:49.314 [JavaFX Application Thread] DEBUG FXGLApplication      - Exiting FXGL
14:10:49.314 [JavaFX Application Thread] DEBUG LoopRunner           - Stopping loop
14:10:49.314 [JavaFX Application Thread] DEBUG SystemBundleService  - Saving FXGL system data
14:10:49.316 [JavaFX Application Thread] DEBUG FileSystemAccess     - Writing to: C:\Users\1533920\Desktop\basicgameexamplev2\system\fxgl.bundle
14:10:49.316 [JavaFX Application Thread] DEBUG Async                - Shutting down background threads
14:10:49.317 [JavaFX Application Thread] DEBUG PrimaryStageWindow   - Closing main window
14:10:49.327 [JavaFX Application Thread] DEBUG Logger               - Closing Logger
